Zillow - House value
…
## integer(0)

dim(sample_submission)

## [1] 2985217       7

Also there are 2985217 datasets in both properties_2016 & properties_2017 . And Houses in both the datasets exactly match. Also it matches the sample_submission file.

I am interested to see how many houses were sold more than once .There were 124 out of 90150 houses that were sold more than once in 2016 (2016 training data)

train_2016_v2 %>% group_by(parcelid) %>% summarise(freq=n()) %>% filter(freq>1) %>% arrange(desc(freq))

## # A tibble: 124 x 2
##    parcelid  freq
##       <int> <int>
##  1 11842707     3
##  2 10736972     2
##  3 10790468     2
##  4 10796614     2
##  5 10798910     2
##  6 10799924     2
##  7 10815854     2
##  8 10818076     2
##  9 10821829     2
## 10 10858080     2
## # ... with 114 more rows

train_2016_v2 %>% group_by(parcelid) %>% summarise(freq=n()) %>% filter(freq>1) %>% dim()

## [1] 124   2

train_2016_v2 %>% group_by(parcelid) %>% summarise(freq=n()) %>%  dim()

## [1] 90150     2

Likewise lets see for 2017 trainign data. There were 196 out of 77414 houses that were sold more than once in 2017 (2016 training data)

train_2017 %>% group_by(parcelid) %>% summarise(freq=n()) %>% filter(freq>1) %>% arrange(desc(freq))

## # A tibble: 196 x 2
##    parcelid  freq
##       <int> <int>
##  1 10857130     3
##  2 11991059     3
##  3 12612211     3
##  4 10722858     2
##  5 10732347     2
##  6 10739478     2
##  7 10744507     2
##  8 10753427     2
##  9 10753829     2
## 10 10777937     2
## # ... with 186 more rows
…
